15 正则表达式 – R4DS Notes from DJ
…
在掌握正则基础之后，可结合函数进行实用数据处理。

检测匹配

str_detect() 函数返回逻辑向量，判断字符串中是否匹配某个正则模式。

str_detect(c("a", "b", "c"), "[aeiou]")
#> [1] TRUE FALSE FALSE

常与 filter() 结合使用，示例：查找包含小写 “x” 的人名并按使用次数降序排列：

babynames |> 
  filter(str_detect(name, "x")) |> 
  count(name, wt = n, sort = TRUE)
#> # A tibble: 974 × 2
#>   name           n
#>   <chr>      <int>
#> 1 Alexander 665492
#> 2 Alexis    399551
#> 3 Alex      278705
#> 4 Alexandra 232223
#> 5 Max       148787
#> 6 Alexa     123032
#> # ℹ 968 more rows
…
