…
本书开篇甩出一系列问题：企鹅的脚蹼长度和体重之间的关系是怎样的？是线性？非线性？这种关系是否因企鹅的种类而异？与地理位置有关吗？针对这些问题，我们将进行可视化操作以回答。

首先了解一些术语：

-   **变量(variable**)是可以测量的数量、质量等属性。
-   **值(value**)是测量变量时变量的状态。变量的值可能会因测量而异。
-   **观测值(observation**)是在相近条件下进行的一组测量 （通常就是在同一时间对同一对象的所有值）。一个观测值将包含多个值，每个值都与不同的变量相关联。
-   **表格数据(tabular data**)是一组值，每个值都与一个变量和一个观测值相关联。

接下来输入`palmerpenguins::penguins`以打开示例数据的数据框。注意到并未显示出所有变量。

``` r
> palmerpenguins::penguins
# A tibble: 344 × 8
   species island  bill_length_mm bill_depth_mm
   <fct>   <fct>            <dbl>         <dbl>
 1 Adelie  Torger…           39.1          18.7
 2 Adelie  Torger…           39.5          17.4
 3 Adelie  Torger…           40.3          18  
 4 Adelie  Torger…           NA            NA  
 5 Adelie  Torger…           36.7          19.3
 6 Adelie  Torger…           39.3          20.6
 7 Adelie  Torger…           38.9          17.8
 8 Adelie  Torger…           39.2          19.6
 9 Adelie  Torger…           34.1          18.1
10 Adelie  Torger…           42            20.2
# ℹ 334 more rows
# ℹ 4 more variables: flipper_length_mm <int>,
#   body_mass_g <int>, sex <fct>, year <int>
# ℹ Use `print(n = ...)` to see more rows
```
…
