26 迭代 – R4DS Notes from DJ
…
df_paired <- tibble(
  a_val = rnorm(10), a_wts = runif(10),
  b_val = rnorm(10), b_wts = runif(10),
  c_val = rnorm(10), c_wts = runif(10),
  d_val = rnorm(10), d_wts = runif(10)
)

df_long <- df_paired |> 
  pivot_longer(
    everything(), 
    names_to = c("group", ".value"), 
    names_sep = "_"
  )
df_long
#> # A tibble: 40 × 3
#>   group    val   wts
#>   <chr>  <dbl> <dbl>
#> 1 a      0.715 0.518
#> 2 b     -0.709 0.691
#> 3 c      0.718 0.216
#> 4 d     -0.217 0.733
#> 5 a     -1.09  0.979
#> 6 b     -0.209 0.675
#> # ℹ 34 more rows
…
这些名称会自动传递给所有的 map 函数，因此生成的数据框列表也会带有这些名称：

files <- paths |> 
  set_names(basename) |> 
  map(readxl::read_excel)

可以使用 [[]] 通过名称提取某个元素：

files[["1962.xlsx"]]
#> # A tibble: 142 × 5
#>   country     continent lifeExp      pop gdpPercap
#>   <chr>       <chr>       <dbl>    <dbl>     <dbl>
#> 1 Afghanistan Asia         32.0 10267083      853.
#> 2 Albania     Europe       64.8  1728137     2313.
#> 3 Algeria     Africa       48.3 11000948     2551.
#> # ℹ 139 more rows

接着使用 list_rbind() 的 names_to 参数将这些名称保存为名为 year 的新列，再用 readr::parse_number() 从字符串中提取数值部分：

paths |> 
  set_names(basename) |> 
  map(readxl::read_excel) |> 
  list_rbind(names_to = "year") |> 
  mutate(year = parse_number(year))
#> # A tibble: 1,704 × 6
#>    year country     continent lifeExp      pop gdpPercap
#>   <dbl> <chr>       <chr>       <dbl>    <dbl>     <dbl>
#> 1  1952 Afghanistan Asia         28.8  8425333      779.
#> 2  1952 Albania     Europe       55.2  1282697     1601.
#> 3  1952 Algeria     Africa       43.1  9279525     2449.
#> # ℹ 1,701 more rows

在更复杂情形中，目录名中可能含有多个信息片段。此时使用 set_names()（不加参数）保留完整路径，并结合 tidyr::separate_wider_delim() 等函数将其拆分为新列：

paths |> 
  set_names() |> 
  map(readxl::read_excel) |> 
  list_rbind(names_to = "year") |> 
  separate_wider_delim(year, delim = "/", names = c(NA, "dir", "file")) |> 
  separate_wider_delim(file, delim = ".", names = c("file", "ext"))
#> # A tibble: 1,704 × 8
#>   dir       file  ext   country     continent lifeExp      pop gdpPercap
#>   <chr>     <chr> <chr> <chr>       <chr>       <dbl>    <dbl>     <dbl>
#> 1 gapminder 1952  xlsx  Afghanistan Asia         28.8  8425333      779.
#> 2 gapminder 1952  xlsx  Albania     Europe       55.2  1282697     1601.
#> 3 gapminder 1952  xlsx  Algeria     Africa       43.1  9279525     2449.
#> # ℹ 1,701 more rows
…
下面便可将该函数应用到所有文件，再通过 pivot 操作观察列类型的异同：

files |> 
  map(df_types) |> 
  list_rbind(names_to = "file_name") |> 
  select(-n_miss) |> 
  pivot_wider(names_from = col_name, values_from = col_type)
#> # A tibble: 12 × 6
#>   file_name country   continent lifeExp pop    gdpPercap
#>   <chr>     <chr>     <chr>     <chr>   <chr>  <chr>    
#> 1 1952.xlsx character character double  double double   
#> 2 1957.xlsx character character double  double double   
#> 3 1962.xlsx character character double  double double   
#> 4 1967.xlsx character character double  double double   
#> 5 1972.xlsx character character double  double double   
#> 6 1977.xlsx character character double  double double   
#> # ℹ 6 more rows
…
26.4.2 写入 CSV 文件

将多个数据框写入多个 CSV 文件也是同理。

现在我们需要将 ggplot2::diamonds 数据按 clarity 分组，每组写一个 csv 文件。首先，使用 group_nest() 创建每个 clarity 的子数据集：

by_clarity <- diamonds |> 
  group_nest(clarity)

by_clarity
#> # A tibble: 8 × 2
#>   clarity               data
#>   <ord>   <list<tibble[,9]>>
#> 1 I1               [741 × 9]
#> 2 SI2            [9,194 × 9]
#> 3 SI1           [13,065 × 9]
#> 4 VS2           [12,258 × 9]
#> 5 VS1            [8,171 × 9]
#> 6 VVS2           [5,066 × 9]
#> # ℹ 2 more rows

再使用 mutate() 和 str_glue() 添加每个数据集对应的文件路径：

by_clarity <- by_clarity |> 
  mutate(path = str_glue("diamonds-{clarity}.csv"))

by_clarity
#> # A tibble: 8 × 3
#>   clarity               data path             
#>   <ord>   <list<tibble[,9]>> <glue>           
#> 1 I1               [741 × 9] diamonds-I1.csv  
#> 2 SI2            [9,194 × 9] diamonds-SI2.csv 
#> 3 SI1           [13,065 × 9] diamonds-SI1.csv 
#> 4 VS2           [12,258 × 9] diamonds-VS2.csv 
#> 5 VS1            [8,171 × 9] diamonds-VS1.csv 
#> 6 VVS2           [5,066 × 9] diamonds-VVS2.csv
#> # ℹ 2 more rows
…
