28 Base R 实战指南 – R4DS Notes from DJ
…
接着，我们不直接对 paths 的元素进行迭代，而是对其索引进行迭代，用 seq_along() 为 paths 中的每个元素生成一个索引：

seq_along(paths)
#>  [1]  1  2  3  4  5  6  7  8  9 10 11 12

使用索引，我们便可以将输入和输出中的位置一一对应起来，完成读取：

for (i in seq_along(paths)) {
  files[[i]] <- readxl::read_excel(paths[[i]])
}

将包含多个 tibble 的列表合并成一个 tibble，可以用 do.call() + rbind()：

do.call(rbind, files)
#> # A tibble: 1,704 × 5
#>   country     continent lifeExp      pop gdpPercap
#>   <chr>       <chr>       <dbl>    <dbl>     <dbl>
#> 1 Afghanistan Asia         28.8  8425333      779.
#> 2 Albania     Europe       55.2  1282697     1601.
#> 3 Algeria     Africa       43.1  9279525     2449.
#> 4 Angola      Africa       30.0  4232095     3521.
#> 5 Argentina   Americas     62.5 17876956     5911.
#> 6 Australia   Oceania      69.1  8691212    10040.
#> # ℹ 1,698 more rows
…
