9 图层 – R4DS Notes from DJ
…
9  图层

9.1 引言

本章将在学习图形的分层语法时扩展ggplot2基础，从更深入地研究美学映射、几何对象和分面开始。然后介绍 ggplot2 在创建绘图时在后台进行的统计转换，这些变换用于计算要绘制的新值，例如条形图中条形的高度或箱形图中的中位数。另外还将了解位置调整，用于修改几何在绘图中的显示方式。最后，简要介绍坐标系相关内容。

9.2 美学映射

“The greatest value of a picture is when it forces us to notice what we never expected to see.” — John Tukey

mpg数据框与ggplot2包捆绑，包含 38 个汽车模型的 234 个观测值。

mpg
#> # A tibble: 234 × 11
#>   manufacturer model displ  year   cyl trans      drv     cty   hwy fl   
#>   <chr>        <chr> <dbl> <int> <int> <chr>      <chr> <int> <int> <chr>
#> 1 audi         a4      1.8  1999     4 auto(l5)   f        18    29 p    
#> 2 audi         a4      1.8  1999     4 manual(m5) f        21    29 p    
#> 3 audi         a4      2    2008     4 manual(m6) f        20    31 p    
#> 4 audi         a4      2    2008     4 auto(av)   f        21    30 p    
#> 5 audi         a4      2.8  1999     6 auto(l5)   f        16    26 p    
#> 6 audi         a4      2.8  1999     6 manual(m5) f        18    26 p    
#> # ℹ 228 more rows
#> # ℹ 1 more variable: class <chr>
…
